revise2
…
load('/Users/zhangdi/FIN 3380/L2/crsp.sample.RData')
crsp.sample=crsp.sample %>% select(permno, date, ret)
summary=crsp.sample %>% group_by(permno) %>% summarise(n=n())
crsp.sample.wide=spread(crsp.sample,permno,ret)
crsp.sample=gather(crsp.sample.wide,permno,ret,-date)
summary=crsp.sample %>% group_by(permno) %>% summarise(n=n())
crsp.sample=crsp.sample %>% mutate(ret=ifelse(is.na(ret),0,ret))
# iselse + is.na is important
crsp.sample=crsp.sample %>% mutate(date=as.character(date)) %>% mutate(yymm=substr(date,1,7)) %>%
  group_by(permno,yymm) %>% mutate(cum=cumprod(ret+1)) %>% ungroup()
ew=crsp.sample %>% group_by(date) %>% summarise(cum=mean(cum),yymm=first(yymm))
ew

## # A tibble: 2,264 x 3
##    date         cum yymm   
##    <chr>      <dbl> <chr>  
##  1 2010-01-04  1.02 2010-01
##  2 2010-01-05  1.03 2010-01
##  3 2010-01-06  1.04 2010-01
##  4 2010-01-07  1.05 2010-01
##  5 2010-01-08  1.06 2010-01
##  6 2010-01-11  1.06 2010-01
##  7 2010-01-12  1.03 2010-01
##  8 2010-01-13  1.05 2010-01
##  9 2010-01-14  1.06 2010-01
## 10 2010-01-15  1.06 2010-01
## #  with 2,254 more rows
…
