HW6
…
## [1] 0.03059682

Q2 SARIMA

retail = read.csv('HW6/retail.csv')

colnames(retail) = c('date', 'sales')
retail=as_tibble(retail)

retail

## # A tibble: 297 x 2
##    date        sales
##    <fct>       <int>
##  1 1995-01-01 175344
##  2 1995-02-01 172138
##  3 1995-03-01 201279
##  4 1995-04-01 196039
##  5 1995-05-01 210478
##  6 1995-06-01 211844
##  7 1995-07-01 203411
##  8 1995-08-01 214248
##  9 1995-09-01 202122
## 10 1995-10-01 204044
## #  with 287 more rows
…
